Fine-mapping analysis caveats: LD, MAF and window size
…
4.1 Locus1 (failed diagnostics)

The indication of failed fine-mapping: the maximum posterior prob. is with the maximum number of causals. Also, the top SNPs based on Posterior Probability of SNP to be causal (rank_pp column) are far away from the top SNPs based on Z-scores (rank_z column).

 - tables of results: `config`, `snp`, `ncausal`
 - locus: 1 
  -- config:
  -- input snps: 2370 fine-mapped + 310 missing Z/LD = 2680 in total
# A tibble: 10 x 4
   rank config                           config_prob config_log10bf
  <int> <chr>                                  <dbl>          <dbl>
1     1 rs10399947,rs12090215,rs78278355       0.167           23.6
2     2 rs1134067,rs12090215,rs78278355        0.130           23.5
3     3 rs6686064,rs12090215,rs78278355        0.113           23.5
# ... with 7 more rows
  -- snp:
# A tibble: 2,680 x 6
  snp        rank_z rank_pp snp_prob snp_prob_cumsum snp_log10bf
  <chr>       <int>   <int>    <dbl>           <dbl>       <dbl>
1 rs12090215     19       1    1.00            0.333       13.2 
2 rs78278355   1446       2    1.00            0.667       13.2 
3 rs10399947      1       3    0.167           0.722        2.50
# ... with 2,677 more rows
…
4.2 Locus3 (ok diagnostics)

 - tables of results: `config`, `snp`, `ncausal`
 - locus: 1 
  -- config:
  -- input snps: 4148 fine-mapped + 406 missing Z/LD = 4554 in total
# A tibble: 10 x 4
   rank config                config_prob config_log10bf
  <int> <chr>                       <dbl>          <dbl>
1     1 rs72242061                  0.203           3.92
2     2 rs72242061,rs61249550       0.191           7.51
3     3 rs60100018                  0.121           3.69
# ... with 7 more rows
  -- snp:
# A tibble: 4,554 x 6
  snp        rank_z rank_pp snp_prob snp_prob_cumsum snp_log10bf
  <chr>       <int>   <int>    <dbl>           <dbl>       <dbl>
1 rs61249550      3       1    0.475           0.347        3.40
2 rs72242061      1       2    0.395           0.635        3.26
3 rs60100018      2       3    0.184           0.769        2.79
# ... with 4,551 more rows
…
